{

  "menu_welcome" : "ברוכים הבאים",
  "menu_main" : "ראשי",
 "menu_insurance" : "רכישת ביטוח",
 "menu_divinglicense" : "צילום רישיון צלילה",
  "menu_divingdiary" : "יומן צלילה",
   "menu_clubs" : "מועדונים" ,
   "menu_gearscheck" : "בדיקת ציוד תקופתית" ,
     "menu_personalinfo" : "עדכון פרטים אישיים" ,
   "menu_contact" : "צור קשר" ,
   "menu_logout" : "התנתקות",
   
   
"divinglicense_page_title" : "צילום רישיון צלילה",
 "divinglicense_maindive" : "רישיון צלילה ראשי",
 
 
 
 "clubsmain_title" : "מועדונים",
 "clubsmain_search" : "חיפוש מועדון",
  "clubsmain_sendmessage" : "שליחת הודעה למועדון",
 "clubsmain_close" : "סגירה",
 
 
  "gearscheck_balance" : "מאזן",
 "gearscheck_breating" : "מערכת נשימה",
 "gearscheck_tank" : "מיכל",
  "gearscheck_date" : "תאריך",
   "gearscheck_remarks" : "הערות",
     "gearscheck_title" : "בדיקת ציוד תקופתית",
 
   
   
   
   
  "updateinfo_fullname" : "שם מלא",
 "updateinfo_phone" : "טלפון",
 "updateinfo_email" : "אימייל",
  "updateinfo_birthdate" : "תאריך לידה",
   "updateinfo_country" : "מדינה" ,
   "updateinfo_gender" : "מין" ,
    "updateinfo_title" : "עדכון פרטים אישים" ,

   "contact_title" : "צור קשר",
  "contact_fullname" : "שם מלא",
 "contact_phone" : "טלפון",
 "contact_email" : "אימייל",
  "contact_desc" : "תוכן הפנייה",
  
  "contact_welcometext1" : "ברוכים הבאים לאפליקציית",
 "contact_welcometext2" : "אם ברצונכם ליצור עימנו קשר",
 "contact_welcometext3" : "נשמח אם תשאירו פרטים",
  "contact_welcometext4" : "ונציגנו יחזרו בהקדם",
  "contact_welcometext5" : "תודה, צוות האפליקציה",
  
  
  
  "adddiary_divenumber" : "מספר צלילה",
  "adddiary_clubname" : "מרכז צלילה",
 "adddiary_divedate" : "תאריך צלילה",
 "adddiary_divetype" : "סוג צלילה",
  "adddiary_refresh" : "ריענון",
  "adddiary_guided" : "מודרך",
 "adddiary_course" : "קורס",
 "adddiary_free" : "חופשית",
  "adddiary_country" : "מדינה",
   "adddiary_depth" : "עומק" ,
   "adddiary_bottomtime" : "זמן תחתית" ,
     "adddiary_divesite" : "אתר צלילה" ,
   "adddiary_weights" : "משקולות" ,
   "adddiary_steel" : "מיכל פלדה",
  "adddiary_almuniuim" : "מיכל אלומיניום",
  "adddiary_suit" : "חליפה",
  "adddiary_shortsuit" : "חליפה קצרה",
  "adddiary_longsuit" : "חליפה ארוכה",
  "adddiary_twosuit" : "חליפת 2 חלקים",
 "adddiary_airtankstart" : "אוויר במיכל - התחלה (בר)",
 "adddiary_airtankfinsh" : "אוויר במיכל - סיום (בר)",
  "adddiary_totaltime" : "סה״כ זמן",
   "adddiary_partner" : "בן זוג לצלילה" ,
   "adddiary_freetext" : "מלל חופשי" ,
     "adddiary_optionaloldcamera" : "אופציה לצילום יומן ישן",
	 
	 
 "login_username" : "שם משתמש",
  "login_password" : "סיסמא",
   "login_forgot" : "שכחתי סיסמה" ,


  "forgot_close" : "סגירה",
   "forgot_email" : "כתובת אימייל",



   "register_firstname" : "שם פרטי" ,
   "register_lastname" : "שם משפחה",
  "register_phone" : "טלפון",
  "register_email" : "אימייל",
  "register_birth" : "תאריך לידה",
  "register_country" : "מדינה",
  "register_username" : "שם משתמש",
 "register_password" : "סיסמא",
  "register_gender" : "מין",
   "register_male" : "זכר",
    "register_female" : "נקבה",
 
 
 
  "mainlicense_mainplaceholder" : "רישיון צלילה ראשי",
  
  
  "divingdiary_search" : "חיפוש יומן צלילה",
  "divingdiary_approvedby" : "נחתם על ידי",
  "divingdiary_approvedby1" : "רישיון צלילה ראשי",
  "divingdiary_title" : "יומן צלילה",


  
  "divinglicense_title" : "הוסף רישיון צלילה",
  "divinglicense_name" : "שם הרישיון",
  "divinglicense_desc" : "פרטים על הרישיון",



 "countries_IL" : "ישראל",
  "countries_EG" : "מצרים",
  "countries_PW" : "איי פלאו",
 "countries_PH" : "הפיליפינים",
 "countries_JO" : "ירדן",
  "countries_ZA" : "דרום אפריקה",
   "countries_MV" : "האיים המלדיביים" ,
   "countries_EC" : "איי גלאפגוס" ,
     "countries_CC" : "האי קוקוס" ,
   "countries_FM" : "מיקרונזיה" ,
   "countries_HI" : "הוואי",
  "countries_TH" : "תאילנד",
  "countries_MY" : "מלזיה",
  "countries_CR" : "קוסטה ריקה",
  "countries_AU" : "אוסטרליה",
  "countries_NZ" : "ניו זילנד",
 "countries_GY" : "גינאה החדשה",
 "countries_BZ" : "בליז",
  "countries_MT" : "מלטה",
   "countries_GR" : "יוון" ,
   "countries_US" : "ארצות הברית",


   "confirm_error" : "אשר",
   "insurance_error" : "בהקמה",
   
   
"loginError1" : "יש להזין שם משתמש",
"loginError2" : "יש להזין סיסמה",
"loginError3" : "שם משתמש או סיסמה שגוים יש לתקן",
"loginError4" : "יש להזין כתובת מייל",
"loginError5" : "מייל לא תקין יש לתקן",
"loginError6" : "פרטי התחברות נשלחו בהצלחה למייל שהזנת",
"loginError7" : "חסר לנו פרטי טלפון או/ו תאריך לידה האם ברצונך למלא פרטים אלו כעת?",
"loginError8" : "עדכון פרטים אישיים",  
"loginError9" : "ביטול",



"registerError1" : "יש להזין שם פרטי",
"registerError2" : "יש להזין שם משפחה",
"registerError3" : "יש להזין מספר טלפון",
"registerError4" : "יש להזין כתובת מייל",
"registerError5" : "מייל לא תקין יש לתקן",
"registerError6" : "יש להזין תאריך לידה",
"registerError7" : "יש להזין שם משתמש",
"registerError8" : "יש להזין סיסמה",  
"registerError9" : "שם משתמש או אימייל כבר בשימוש יש להזין כתובת אחרת",




"AddLicenseError1" : "בחר/י אפשרות:",
"AddLicenseError2" : "מצלמה",
"AddLicenseError3" : "גלריית תמונות",
"AddLicenseError4" : "ביטול",
"AddLicenseError5" : "ניתן להוסיף עד 2 תמונות לרישיון",
"AddLicenseError6" : "יש להזין שם הרישיון",
"AddLicenseError7" : "האם לאשר מחיקה?",


"ClubsError1" : "פרטיך התקבלו בהצלחה, תודה",
"ClubsError2" : "יש להזין תוכן הפנייה",
"ClubsError3" : "הודעתך נשלחה בהצלחה למועדון",


"AddDiaryError1" : "הוספת יומן צלילה",
"AddDiaryError2" : "עריכת יומן צלילה",
"AddDiaryError3" : "יש לבחור מרכז צלילה",
"AddDiaryError4" : "יש למלא תאריך צלילה",
"AddDiaryError5" : "יש לבחור סוג צלילה",
"AddDiaryError6" : "יש למלא עומק צלילה",
"AddDiaryError7" : "יש למלא זמן תחתית",
"AddDiaryError8" : "הזן קוד מועדון:",  
"AddDiaryError9" : "קוד מועדון",
"AddDiaryError10" : "קוד מועדון שגוי יש לנסות שנית",
"AddDiaryError11" : "יומן צלילה עודכן בהצלחה",
"AddDiaryError12" : "יומן צלילה נוסף בהצלחה,תודה",

"GearsError1" : "נתונים נשמרו בהצלחה",


"ContactError1" : "יש להזין שם מלא",
"ContactError2" : "יש להזין מספר טלפון או כתובת מייל לחזרה",
"ContactError3" : "יש להזין תוכן הפניה",
"ContactError4" : "פניתך התקבלה בהצלחה נחזור אליך בהקדם האפשרי",

"UpdateInfoError1" : "פרטים עודכנו בהצלחה",


"MainLicenseError1" : "יומן צלילה ראשי נמחק בהצלחה"

 
}