{
"EG":"מצרים",
"PW":"פאלאו",
"PH":"פיליפינים",
"JO":"ירדן",
"ZA":"דרום אפריקה",
"MV":"מלדיבים",
"EC":"אקוודור",
"CC":"איי קוקוס",
"FM":"מיקרונזיה",
"HI":"הוואי",
"TH":"תאילנד",
"MY":"מלזיה",
"CR":"קוסטה ריקה",
"AU":"אוסטרליה",
"NZ":"ניו זילנד",
"GY":"גיאנה",
"BZ":"בליז",
"MT":"מלטה",
"GR":"יוון",
"US":"ארצות הברית",

"MT":"מלטה וגוזו",
"IN":"הודו",
"ID":"אינדונזיה",
"JP":"יפן",
"SG":"סינגפור",
"LK":"סרי לנקה",
"VN":"וייטנאם",
"MZ":"מוזמביק",
"TZ":"טנזניה",
"FJ":"פיג׳י",
"PF":"פולינזיה הצרפתית",
"PG":"פפואה גיניאה החדשה",
"VU":"ונואטו",
"AW":"ארובה",
"BS":"איי בהאמה",
"BB":"ברבדוס",
"BM":"ברמודה",
"KY":"איי קיימן",
"DM":"דומיניקה",
"DO":"הרפובליקה הדומיניקנית",
"GD":"גרנדה",
"PR":"פורטו ריקו",
"TT":"טרינידד וטובגו",
"TC":"איי טורקס וקאיקוס",
"HN":"הונדורס",
"BZ":"בליז",
"PA":"פנמה",
"HR":"קרואטיה",
"CY":"קפריסין",
"DE":"גרמניה",
"IT":"איטליה",
"ES":"ספרד",
"IE":"אירלנד",
"AE":"איחוד האמירויות הערביות",
"OM":"עומאן",
"MX":"מקסיקו",
"FR":"צרפת"


}

